{
  "softwares": [
      {
        "id": "compliance",
        "name": "⚙ Gaia-X Compliance Service",
        "mandatory": true,
        "links": {
          "22.04": {
            "document": "https://docs.gaia-x.eu/policy-rules-committee/trust-framework/22.04/",
            "repository": "https://gitlab.com/gaia-x/lab/compliance/gx-compliance/-/tree/2204"
          },
          "22.06-rc": {
            "document": "https://gaia-x.gitlab.io/policy-rules-committee/trust-framework/changelog/#2022-june-release-candidate-2206-rc",
            "repository": "https://gitlab.com/gaia-x/lab/compliance/gx-compliance/-/tree/2206-unreleased",
            "runningEndpoint": "https://compliance.lab.gaia-x.eu/2206-unreleased/docs/"
          },
          "22.10": {
            "document": "https://docs.gaia-x.eu/policy-rules-committee/trust-framework/22.10/",
            "repository": "https://gitlab.com/gaia-x/lab/compliance/gx-compliance/-/tree/v1.0.0?ref_type=tags",
            "runningEndpoint": "https://compliance.lab.gaia-x.eu/v1/docs/"
          }
        }
      },
      {
        "id": "registry",
        "name": "⚙ Gaia-X Registry Service",
        "mandatory": true,
        "links": {
          "22.04": {
            "document": "https://docs.gaia-x.eu/policy-rules-committee/trust-framework/22.04/",
            "repository": "https://gitlab.com/gaia-x/lab/compliance/gx-registry/-/tree/2204"
          },
          "22.06-rc": {
            "document": "https://gaia-x.gitlab.io/policy-rules-committee/trust-framework/changelog/#2022-june-release-candidate-2206-rc",
            "repository": "https://gitlab.com/gaia-x/lab/compliance/gx-registry/-/tree/2206-unreleased",
            "runningEndpoint": "https://registry.lab.gaia-x.eu/2206-unreleased/docs/"
          },
          "22.10": {
            "document": "https://docs.gaia-x.eu/policy-rules-committee/trust-framework/22.10/",
            "repository": "https://gitlab.com/gaia-x/lab/compliance/gx-registry/-/tree/v1.0.0?ref_type=tags",
            "runningEndpoint": "https://registry.lab.gaia-x.eu/v1/docs/"
          }
        }
      },
      {
        "id": "continuous-automated-monitoring",
        "name": "\uD83D\uDCE6 Continuous Automated Monitoring",
        "links": {
          "21.03": {
            "document": "https://www.gxfs.eu/download/1731/",
            "repository": "https://gitlab.com/gaia-x/data-infrastructure-federation-services/cam",
            "runningEndpoint": "https://cam.gxfs.dev"
          }
        }
      },
      {
        "id": "orchestration",
        "name": "\uD83D\uDCE6 Orchestration",
        "links": {
          "21.03": {
            "document": "https://www.gxfs.eu/download/1719/",
            "repository": "https://gitlab.com/gaia-x/data-infrastructure-federation-services/orc",
            "runningEndpoint": null
          }
        }
      },
      {
        "id": "personal-credential-manager",
        "name": "\uD83D\uDCE6 Personal Credential Manager",
        "links": {
          "21.03": {
            "document": "https://www.gxfs.eu/download/1749/",
            "repository": "https://gitlab.com/gaia-x/data-infrastructure-federation-services/pcm",
            "runningEndpoint": null
          }
        }
      },
      {
        "id": "organization-credential-manager",
        "name": "\uD83D\uDCE6 Organization Credential Manager",
        "links": {
          "21.03": {
            "document": "https://www.gxfs.eu/download/1746/",
            "repository": "https://gitlab.com/gaia-x/data-infrastructure-federation-services/ocm",
            "runningEndpoint": null
          }
        }
      },
      {
        "id": "trust-services-api",
        "name": "\uD83D\uDCE6 Trust Services API",
        "links": {
          "21.03": {
            "document": "https://www.gxfs.eu/download/1743/",
            "repository": "https://gitlab.com/gaia-x/data-infrastructure-federation-services/tsa",
            "runningEndpoint": null
          }
        }
      },
      {
        "id": "notarization-api",
        "name": "\uD83D\uDCE6 Notarization API",
        "links": {
          "21.03": {
            "document": "https://www.gxfs.eu/download/1725/",
            "repository": "https://gitlab.com/gaia-x/data-infrastructure-federation-services/not",
            "runningEndpoint": null
          },
          "22.10": {
            "repository": "https://gitlab.com/gaia-x/lab/compliance/gaia-x-notary-registrationnumber/-/tree/master",
            "runningEndpoint": "https://registrationnumber.notary.lab.gaia-x.eu/v1/docs"
          }
        }
      },
      {
        "id": "core-catalogue-functions",
        "name": "\uD83D\uDCE6 Core Catalogue Functions",
        "links": {
          "21.03": {
            "document": "https://www.gxfs.eu/download/1740/",
            "repository": "https://gitlab.com/gaia-x/data-infrastructure-federation-services/cat",
            "runningEndpoint": null
          }
        }
      },
      {
        "id": "data-exchange-logging-service",
        "name": "\uD83D\uDCE6 Data Exchange Logging Service",
        "links": {
          "21.03": {
            "document": "https://www.gxfs.eu/download/1734/",
            "repository": "https://gitlab.com/gaia-x/data-infrastructure-federation-services/del",
            "runningEndpoint": null
          }
        }
      },
      {
        "id": "data-contract-services",
        "name": "\uD83D\uDCE6 Data Contract Services",
        "links": {
          "21.03": {
            "document": "https://www.gxfs.eu/download/1737/",
            "repository": "https://gitlab.com/gaia-x/data-infrastructure-federation-services/dct",
            "runningEndpoint": null
          }
        }
      },
      {
        "id": "data-connector",
        "name": "\uD83D\uDCE6 Data Connector / Platform Extensions",
        "links": {}
      },
      {
        "id": "self-description-wizard",
        "name": "📦 Self-Description Wizard",
        "links": {
          "21.03": {
            "document": null,
            "repository": "https://gitlab.com/gaia-x/data-infrastructure-federation-services/self-description-tooling",
            "runningEndpoint": null
          }
        }
      }
  ]
}
